test
…
2.449489742783178

The above code might have overkilled this simple task of taking a sqaure root of a sum, but piping will become very useful in handling a long series of commands. For more details of Pipe, please read the julia tutorial on [pipe] (https://syl1.gitbook.io/julia-language-a-concise-tutorial/useful-packages/pipe).

Brief Introduction to the Package RDatasets

The package RDatasets provides most of the base R datasets for Julia users to play around. We will be using the dataset bfi from the R package psych in this tutorial to explore regression analyses in Julia.

Let’s read in the dataset bfi and drop out missing values.

using RDatasets
# show(RDatasets.datasets("psych"), allrows=true)
bfi = @pipe dataset("psych", "bfi") |> dropmissing(_)

2236×29 DataFrame
  Row │ Variable  A1     A2     A3     A4     A5     C1     C2     C3     C4   ⋯
      │ Int64     Int64  Int64  Int64  Int64  Int64  Int64  Int64  Int64  Int6 ⋯
──────┼─────────────────────────────────────────────────────────────────────────
    1 │    61623      6      6      5      6      5      6      6  6      1    ⋯
    2 │    61629      4      3      1      5      1      3      2  4      2
    3 │    61634      4      4      5      6      5      4      3  5      3
    4 │    61640      4      5      2      2      1      5      5  5      2
    5 │    61661      1      5      6      5      6      4      3  2      4    ⋯
    6 │    61664      2      6      5      6      5      3      5  6      3
    7 │    61667      4      5      5      6      5      5      5  4      1
    8 │    61668      1      6      6      1      6      5      2  5      1
  ⋮   │    ⋮        ⋮      ⋮      ⋮      ⋮      ⋮      ⋮      ⋮      ⋮      ⋮  ⋱
 2230 │    67540      2      5      3      5      4      5      4  3      4    ⋯
 2231 │    67541      4      4      5      1      2      3      5  3      6
 2232 │    67544      5      5      5      6      5      6      6  2      4
 2233 │    67547      3      4      3      1      3      5      4  5      3
 2234 │    67556      2      3      5      2      5      5      5  5      1    ⋯
 2235 │    67559      5      2      2      4      4      5      5  5      2
 2236 │    67560      2      3      1      4      2      5      5  3      3
                                                20 columns and 2221 rows omitted
…
